<svg width="1920" height="1222" viewBox="0 0 1920 1222" fill="none" xmlns="http://www.w3.org/2000/svg" preserveAspectRatio="none">
<path d="M873.5 0L0 506.5L2 1222H1923V48.5L1422.5 318.654L873.5 0Z" fill="#202020"/>
<path d="M707 277L1103.64 506V964L707 1193L310.36 964V506L707 277Z" fill="#2D2D2D"/>
</svg>
