<svg width="1920" height="2762" viewBox="0 0 1920 2762" fill="none" xmlns="http://www.w3.org/2000/svg">
<path d="M419.5 299L864.204 555.75V1069.25L419.5 1326L-25.204 1069.25V555.75L419.5 299Z" fill="#F7FFFA"/>
<path d="M1919.5 628L2436.95 926.75V1524.25L1919.5 1823L1402.05 1524.25V926.75L1919.5 628Z" fill="#F7FFFA"/>
<path d="M295.512 36.0774L356 1.1547L416.488 36.0774V105.923L356 140.845L295.512 105.923V36.0774Z" stroke="#E5E5E5" stroke-width="2"/>
<path d="M1363.23 1302.83L1402.5 1280.15L1441.77 1302.83V1348.17L1402.5 1370.85L1363.23 1348.17V1302.83Z" stroke="#009933" stroke-width="2"/>
</svg>
